{
    "total": 50,
    "per_page": 20,
    "current_page": 1,
    "last_page": 4,
    "first_page_url": "http://laravel.app?page=1",
    "last_page_url": "http://laravel.app?page=4",
    "next_page_url": "http://laravel.app?page=2",
    "prev_page_url": null,
    "path": "http://laravel.app",
    "from": 1,
    "to": 20,
    "hospitals": [
        {
            "id": 1,
            "name": "RS. Al Islam",
            "location": "Kota Bandung",
            "address": "Jl. Soekarno Hatta",
            "phone": "0225858264",
            "email": "hi@alislam.com",
            "description": "Lorem ipsum dolor sit amet sbdiusb doas idhoais hdoais doaihoshdoshd asidh aosihd aoisdh oaish doaisdh oaish do hsid ioa"
        },
        {
            "id": 2,
            "name": "RS. Edelweis",
            "location": "Kota Bandung",
            "address": "Jl. Soekarno Hatta",
            "phone": "02299981212",
            "email": "hi@edelweis.com",
            "description": "Lorem ipsum dolor sit amet sbdiusb doas idhoais hdoais doaihoshdoshd asidh aosihd aoisdh oaish doaisdh oaish do hsid ioa"
        },
        {
            "id": 3,
            "name": "RS. Humana",
            "location": "Kota Bandung",
            "address": "Jl. Rancabolang",
            "phone": "02246815487",
            "email": "hi@humana.com",
            "description": "Lorem ipsum dolor sit amet sbdiusb doas idhoais hdoais doaihoshdoshd asidh aosihd aoisdh oaish doaisdh oaish do hsid ioa"
        }
    ]
}