{
    "current_page": 1,
    "data": [
        {
            "id": 1,
            "name": "RUMAH SAKIT UMUM BINA SEHAT",
            "address": "JL. RAYA DAYEUHKOLOT NO.325, CITEUREUP, KEC. DAYEUHKOLOT, BANDUNG, JAWA BARAT 40257, INDONESIA",
            "province": "Jawa Barat",
            "city": "Kota Bandung",
            "district": "Dayeuhkolot",
            "sub_district": "Citeureup",
            "lat": "-6.98586000",
            "lng": "107.62500000",
            "phone": "022-5207965",
            "email": "halo@binasehat.com",
            "description": "iosdhja osdopasj dpoasjdpoas jdopasjdopas djpoad. ppsojd apojd p",
            "created_at": "2023-04-07T06:29:59.000000Z",
            "updated_at": "2023-04-07T06:29:59.000000Z"
        },
        {
            "id": 2,
            "name": "RUMAH SAKIT UMUM BINA SEHAT",
            "address": "JL. RAYA DAYEUHKOLOT NO.325, CITEUREUP, KEC. DAYEUHKOLOT, BANDUNG, JAWA BARAT 40257, INDONESIA",
            "province": "Jawa Barat",
            "city": "Kota Bandung",
            "district": "Dayeuhkolot",
            "sub_district": "Citeureup",
            "lat": "-6.98586000",
            "lng": "107.62500000",
            "phone": "022-5207965",
            "email": "halo@binasehat.com",
            "description": "iosdhja osdopasj dpoasjdpoas jdopasjdopas djpoad. ppsojd apojd p",
            "created_at": "2023-04-07T06:30:08.000000Z",
            "updated_at": "2023-04-07T06:30:08.000000Z"
        },
        {
            "id": 3,
            "name": "RUMAH SAKIT UMUM BINA SEHAT",
            "address": "JL. RAYA DAYEUHKOLOT NO.325, CITEUREUP, KEC. DAYEUHKOLOT, BANDUNG, JAWA BARAT 40257, INDONESIA",
            "province": "Jawa Barat",
            "city": "Kota Bandung",
            "district": "Dayeuhkolot",
            "sub_district": "Citeureup",
            "lat": "-6.98586000",
            "lng": "107.62500000",
            "phone": "022-5207965",
            "email": "halo@binasehat.com",
            "description": "iosdhja osdopasj dpoasjdpoas jdopasjdopas djpoad. ppsojd apojd p",
            "created_at": "2023-04-07T06:30:08.000000Z",
            "updated_at": "2023-04-07T06:30:08.000000Z"
        },
        {
            "id": 4,
            "name": "RUMAH SAKIT UMUM BINA SEHAT",
            "address": "JL. RAYA DAYEUHKOLOT NO.325, CITEUREUP, KEC. DAYEUHKOLOT, BANDUNG, JAWA BARAT 40257, INDONESIA",
            "province": "Jawa Barat",
            "city": "Kota Bandung",
            "district": "Dayeuhkolot",
            "sub_district": "Citeureup",
            "lat": "-6.98586000",
            "lng": "107.62500000",
            "phone": "022-5207965",
            "email": "halo@binasehat.com",
            "description": "iosdhja osdopasj dpoasjdpoas jdopasjdopas djpoad. ppsojd apojd p",
            "created_at": "2023-04-07T06:30:09.000000Z",
            "updated_at": "2023-04-07T06:30:09.000000Z"
        },
        {
            "id": 5,
            "name": "RUMAH SAKIT UMUM BINA SEHAT",
            "address": "JL. RAYA DAYEUHKOLOT NO.325, CITEUREUP, KEC. DAYEUHKOLOT, BANDUNG, JAWA BARAT 40257, INDONESIA",
            "province": "Jawa Barat",
            "city": "Kota Bandung",
            "district": "Dayeuhkolot",
            "sub_district": "Citeureup",
            "lat": "-6.98586000",
            "lng": "107.62500000",
            "phone": "022-5207965",
            "email": "halo@binasehat.com",
            "description": "iosdhja osdopasj dpoasjdpoas jdopasjdopas djpoad. ppsojd apojd p",
            "created_at": "2023-04-07T06:30:10.000000Z",
            "updated_at": "2023-04-07T06:30:10.000000Z"
        },
        {
            "id": 6,
            "name": "RUMAH SAKIT UMUM BINA SEHAT",
            "address": "JL. RAYA DAYEUHKOLOT NO.325, CITEUREUP, KEC. DAYEUHKOLOT, BANDUNG, JAWA BARAT 40257, INDONESIA",
            "province": "Jawa Barat",
            "city": "Kota Bandung",
            "district": "Dayeuhkolot",
            "sub_district": "Citeureup",
            "lat": "-6.98586000",
            "lng": "107.62500000",
            "phone": "022-5207965",
            "email": "halo@binasehat.com",
            "description": "iosdhja osdopasj dpoasjdpoas jdopasjdopas djpoad. ppsojd apojd p",
            "created_at": "2023-04-07T06:30:10.000000Z",
            "updated_at": "2023-04-07T06:30:10.000000Z"
        },
        {
            "id": 7,
            "name": "RUMAH SAKIT UMUM BINA SEHAT",
            "address": "JL. RAYA DAYEUHKOLOT NO.325, CITEUREUP, KEC. DAYEUHKOLOT, BANDUNG, JAWA BARAT 40257, INDONESIA",
            "province": "Jawa Barat",
            "city": "Kota Bandung",
            "district": "Dayeuhkolot",
            "sub_district": "Citeureup",
            "lat": "-6.98586000",
            "lng": "107.62500000",
            "phone": "022-5207965",
            "email": "halo@binasehat.com",
            "description": "iosdhja osdopasj dpoasjdpoas jdopasjdopas djpoad. ppsojd apojd p",
            "created_at": "2023-04-07T06:30:11.000000Z",
            "updated_at": "2023-04-07T06:30:11.000000Z"
        },
        {
            "id": 8,
            "name": "RUMAH SAKIT UMUM BINA SEHAT",
            "address": "JL. RAYA DAYEUHKOLOT NO.325, CITEUREUP, KEC. DAYEUHKOLOT, BANDUNG, JAWA BARAT 40257, INDONESIA",
            "province": "Jawa Barat",
            "city": "Kota Bandung",
            "district": "Dayeuhkolot",
            "sub_district": "Citeureup",
            "lat": "-6.98586000",
            "lng": "107.62500000",
            "phone": "022-5207965",
            "email": "halo@binasehat.com",
            "description": "iosdhja osdopasj dpoasjdpoas jdopasjdopas djpoad. ppsojd apojd p",
            "created_at": "2023-04-07T06:30:12.000000Z",
            "updated_at": "2023-04-07T06:30:12.000000Z"
        },
        {
            "id": 9,
            "name": "RUMAH SAKIT UMUM BINA SEHAT",
            "address": "JL. RAYA DAYEUHKOLOT NO.325, CITEUREUP, KEC. DAYEUHKOLOT, BANDUNG, JAWA BARAT 40257, INDONESIA",
            "province": "Jawa Barat",
            "city": "Kota Bandung",
            "district": "Dayeuhkolot",
            "sub_district": "Citeureup",
            "lat": "-6.98586000",
            "lng": "107.62500000",
            "phone": "022-5207965",
            "email": "halo@binasehat.com",
            "description": "iosdhja osdopasj dpoasjdpoas jdopasjdopas djpoad. ppsojd apojd p",
            "created_at": "2023-04-07T06:30:13.000000Z",
            "updated_at": "2023-04-07T06:30:13.000000Z"
        },
        {
            "id": 10,
            "name": "RUMAH SAKIT UMUM BINA SEHAT",
            "address": "JL. RAYA DAYEUHKOLOT NO.325, CITEUREUP, KEC. DAYEUHKOLOT, BANDUNG, JAWA BARAT 40257, INDONESIA",
            "province": "Jawa Barat",
            "city": "Kota Bandung",
            "district": "Dayeuhkolot",
            "sub_district": "Citeureup",
            "lat": "-6.98586000",
            "lng": "107.62500000",
            "phone": "022-5207965",
            "email": "halo@binasehat.com",
            "description": "iosdhja osdopasj dpoasjdpoas jdopasjdopas djpoad. ppsojd apojd p",
            "created_at": "2023-04-07T06:30:13.000000Z",
            "updated_at": "2023-04-07T06:30:13.000000Z"
        }
    ],
    "first_page_url": "http://localhost:8000/api/hospitals?page=1",
    "from": 1,
    "last_page": 2,
    "last_page_url": "http://localhost:8000/api/hospitals?page=2",
    "links": [
        {
            "url": null,
            "label": "&laquo; Previous",
            "active": false
        },
        {
            "url": "http://localhost:8000/api/hospitals?page=1",
            "label": "1",
            "active": true
        },
        {
            "url": "http://localhost:8000/api/hospitals?page=2",
            "label": "2",
            "active": false
        },
        {
            "url": "http://localhost:8000/api/hospitals?page=2",
            "label": "Next &raquo;",
            "active": false
        }
    ],
    "next_page_url": "http://localhost:8000/api/hospitals?page=2",
    "path": "http://localhost:8000/api/hospitals",
    "per_page": 10,
    "prev_page_url": null,
    "to": 10,
    "total": 19
}